## Interface: 11302
## Title: ColoredInventoryItems
## Version: 1.4
## Author: Cpt Cavern
## Notes: Color inventory items with rarity color for Wow Classic
## SavedVariables: ciiConfig

ColoredInventoryItems.lua
